<?xml version="1.0" standalone="no"?>
<!DOCTYPE svg PUBLIC "-//W3C//DTD SVG 20010904//EN"
 "http://www.w3.org/TR/2001/REC-SVG-20010904/DTD/svg10.dtd">
<svg version="1.0" xmlns="http://www.w3.org/2000/svg"
 width="685.000000pt" height="189.000000pt" viewBox="0 0 685.000000 189.000000"
 preserveAspectRatio="xMidYMid meet">
<metadata>
Created by potrace 1.15, written by Peter Selinger 2001-2017
</metadata>
<g transform="translate(0.000000,189.000000) scale(0.100000,-0.100000)"
fill="#000000" stroke="none">
<path d="M769 1830 c-70 -71 -83 -77 -192 -86 -83 -7 -137 -27 -137 -52 0 -7
6 -25 14 -41 17 -32 44 -41 191 -67 135 -23 166 -40 194 -104 22 -51 30 -118
16 -140 -4 -6 -6 -47 -6 -90 1 -81 17 -140 53 -192 l19 -27 -53 16 c-74 21
-128 60 -164 118 -101 159 -162 217 -268 257 l-58 22 6 58 c3 32 2 58 -2 58
-18 -1 -54 -28 -76 -59 -14 -19 -35 -39 -48 -45 -21 -11 -24 -9 -39 28 -9 22
-25 46 -37 54 -20 13 -20 11 -27 -64 -6 -55 -13 -82 -27 -96 -10 -10 -34 -53
-53 -94 -19 -41 -43 -87 -55 -101 -27 -35 -25 -54 7 -85 59 -55 112 -45 188
33 28 28 71 61 96 74 l46 24 34 -21 c61 -36 90 -72 130 -157 39 -84 89 -155
138 -199 46 -41 141 -83 220 -98 87 -16 90 -19 167 -146 30 -50 47 -90 46
-106 -1 -14 -20 -55 -41 -92 -21 -36 -48 -84 -60 -108 -21 -41 -23 -42 -71
-42 -59 0 -90 -11 -135 -47 -54 -43 -43 -67 20 -43 l27 10 -21 -26 c-45 -57
-18 -71 47 -23 l42 30 -15 -28 c-18 -34 -19 -63 -3 -63 6 0 44 31 83 70 55 53
83 72 119 82 53 14 60 34 15 45 l-31 8 20 25 c41 54 142 229 142 247 0 10 -4
23 -9 28 -5 6 -18 33 -29 60 l-20 50 60 0 c59 0 60 -1 80 -38 19 -38 19 -38
-3 -125 -12 -48 -37 -125 -56 -172 -18 -47 -33 -90 -33 -97 0 -7 -18 -22 -41
-33 -48 -25 -130 -142 -103 -148 8 -2 23 3 32 11 9 8 26 19 37 25 19 10 20 7
18 -50 -1 -49 1 -59 15 -56 9 2 22 23 30 50 l15 46 21 -41 c12 -23 28 -43 37
-45 15 -3 16 8 11 88 -4 77 -2 93 13 110 10 11 27 20 37 20 26 0 17 24 -10 28
-12 2 -22 6 -22 9 0 3 18 46 41 97 26 57 62 115 96 155 54 64 54 65 48 115 -4
28 -8 58 -11 67 -3 12 13 19 78 33 139 30 283 82 431 157 345 173 582 268 741
295 103 18 303 23 419 11 l78 -9 -2 -162 -2 -163 34 -44 c19 -24 64 -78 101
-119 l66 -76 -9 -49 c-5 -28 -19 -85 -31 -128 -17 -62 -25 -76 -37 -71 -9 3
-48 9 -88 11 -70 5 -73 5 -102 -25 -33 -33 -40 -62 -16 -62 19 0 19 -5 -1 -35
-15 -23 -15 -25 0 -25 9 0 34 9 56 20 50 26 65 25 40 0 -30 -30 -51 -90 -32
-90 4 0 41 25 82 55 47 34 104 64 153 81 85 30 98 51 41 68 l-31 9 39 83 c51
106 58 155 29 194 -11 16 -21 33 -21 37 0 4 -21 49 -46 99 l-46 92 46 70 c25
39 51 82 58 96 6 14 14 26 18 26 12 0 28 -45 34 -95 22 -192 45 -246 148 -339
80 -72 81 -75 41 -237 -30 -123 -29 -121 -148 -161 -66 -22 -90 -39 -112 -81
-18 -36 -11 -44 30 -30 17 6 43 14 56 18 l23 7 -21 -28 c-26 -36 -39 -94 -21
-94 7 0 27 15 44 33 17 18 46 43 64 55 l32 23 0 -54 c0 -42 4 -56 17 -61 25
-10 31 3 42 78 5 37 11 69 13 70 2 1 19 13 38 27 19 14 52 31 73 38 20 7 37
18 37 26 0 15 -45 25 -83 18 l-28 -5 27 58 c14 33 30 70 34 84 5 14 16 43 24
65 24 65 19 91 -44 219 -79 161 -80 166 -36 260 41 90 20 90 211 9 260 -110
467 -217 670 -346 376 -241 485 -290 755 -341 195 -37 227 -39 410 -27 260 17
390 59 589 189 169 111 279 251 343 439 76 218 70 391 -18 565 -98 194 -243
316 -418 352 -95 20 -256 7 -351 -29 -145 -54 -286 -156 -330 -239 -11 -20
-22 -36 -25 -35 -8 0 -80 116 -80 129 0 6 -7 10 -16 8 -11 -2 -22 -22 -30 -53
-39 -147 20 -377 115 -456 34 -28 106 -58 116 -47 3 2 -6 49 -20 102 -30 117
-31 146 -8 194 18 37 91 117 128 139 18 10 15 12 -25 13 l-45 1 53 49 c56 53
149 102 222 119 129 30 297 -3 402 -79 80 -57 168 -193 203 -315 35 -117 -2
-335 -76 -463 -19 -31 -75 -98 -125 -149 -82 -83 -101 -96 -205 -146 -195 -93
-237 -102 -489 -101 -183 1 -227 5 -295 23 -162 42 -310 114 -442 214 -369
281 -403 304 -620 428 -171 98 -345 184 -583 290 -318 140 -626 201 -907 179
-213 -18 -221 -20 -868 -267 -212 -82 -278 -98 -482 -118 l-63 -6 0 44 c0 98
49 191 120 227 56 29 138 36 191 17 24 -9 89 -21 143 -27 55 -6 102 -13 104
-15 10 -10 63 32 69 54 8 34 -6 52 -64 81 -28 14 -74 46 -103 72 -46 43 -51
51 -45 78 8 37 -11 100 -31 100 -8 0 -21 -15 -29 -32 -7 -18 -16 -36 -20 -39
-3 -4 -23 11 -44 34 -50 53 -65 44 -58 -32 l5 -57 -79 -16 c-156 -32 -328
-167 -391 -307 -24 -51 -31 -85 -35 -153 -3 -49 -8 -88 -11 -88 -3 0 -24 12
-46 28 -58 40 -78 91 -121 305 -18 91 -42 144 -95 208 -22 25 -35 50 -31 55 5
5 14 27 21 49 7 22 20 50 28 63 8 12 12 26 8 29 -10 10 -89 -31 -130 -68 -40
-35 -51 -34 -38 2 18 49 23 79 11 79 -6 0 -38 -27 -70 -60z"/>
</g>
</svg>
